{
  "relationships": [
    {
      "relationshipId": 1,
      "relationshipName": "language",
      "relationshipFieldName": "language",
      "otherEntityName": "language",
      "relationshipType": "many-to-one",
      "otherEntityField": "id"
    },
    {
      "relationshipId": 2,
      "relationshipName": "nameTranslation",
      "relationshipFieldName": "nameTranslation",
      "otherEntityName": "activityNameTranslations",
      "relationshipType": "one-to-many",
      "otherEntityRelationshipName": "activity"
    },
    {
      "relationshipId": 3,
      "relationshipName": "institution",
      "relationshipFieldName": "institution",
      "otherEntityName": "institution",
      "relationshipType": "many-to-many",
      "ownerSide": false,
      "otherEntityRelationshipName": "activitie"
    }
  ],
  "fields": [
    {
      "fieldId": 1,
      "fieldName": "code",
      "fieldType": "String"
    },
    {
      "fieldId": 2,
      "fieldName": "name",
      "fieldType": "String"
    },
    {
      "fieldId": 3,
      "fieldName": "description",
      "fieldType": "String"
    }
  ],
  "changelogDate": "20151125100512",
  "dto": "no",
  "pagination": "no"
}