{
  "relationships": [
    {
      "relationshipId": 1,
      "relationshipName": "language",
      "relationshipFieldName": "language",
      "otherEntityName": "language",
      "relationshipType": "many-to-one",
      "otherEntityField": "id"
    },
    {
      "relationshipId": 2,
      "relationshipName": "person",
      "relationshipFieldName": "person",
      "otherEntityName": "personCategory",
      "relationshipType": "one-to-many",
      "otherEntityRelationshipName": "category"
    },
    {
      "relationshipId": 3,
      "relationshipName": "nameTranslations",
      "relationshipFieldName": "nameTranslations",
      "otherEntityName": "categoryNameTranslations",
      "relationshipType": "one-to-many",
      "otherEntityRelationshipName": "category"
    }
  ],
  "fields": [
    {
      "fieldId": 1,
      "fieldName": "name",
      "fieldType": "String"
    },
    {
      "fieldId": 2,
      "fieldName": "description",
      "fieldType": "String"
    }
  ],
  "changelogDate": "20151125100512",
  "dto": "no",
  "pagination": "no"
}