{
  "relationships": [
    {
      "relationshipId": 1,
      "relationshipName": "language",
      "relationshipFieldName": "language",
      "otherEntityName": "language",
      "relationshipType": "many-to-one",
      "otherEntityField": "id"
    },
    {
      "relationshipId": 2,
      "relationshipName": "personStatus",
      "relationshipFieldName": "personStatus",
      "otherEntityName": "personStatus",
      "relationshipType": "many-to-one",
      "otherEntityField": "id"
    },
    {
      "relationshipId": 3,
      "relationshipName": "otherName",
      "relationshipFieldName": "otherName",
      "otherEntityName": "personName",
      "relationshipType": "one-to-many",
      "otherEntityRelationshipName": "person"
    },
    {
      "relationshipId": 4,
      "relationshipName": "titleInstitution",
      "relationshipFieldName": "titleInstitution",
      "otherEntityName": "titleInstitution",
      "relationshipType": "one-to-many",
      "otherEntityRelationshipName": "person"
    },
    {
      "relationshipId": 5,
      "relationshipName": "user",
      "relationshipFieldName": "user",
      "otherEntityName": "userAccount",
      "relationshipType": "one-to-many",
      "otherEntityRelationshipName": "person"
    },
    {
      "relationshipId": 6,
      "relationshipName": "categorie",
      "relationshipFieldName": "categorie",
      "otherEntityName": "personCategory",
      "relationshipType": "one-to-many",
      "otherEntityRelationshipName": "person"
    },
    {
      "relationshipId": 7,
      "relationshipName": "institution",
      "relationshipFieldName": "institution",
      "otherEntityName": "personInstitution",
      "relationshipType": "one-to-many",
      "otherEntityRelationshipName": "person"
    },
    {
      "relationshipId": 8,
      "relationshipName": "file",
      "relationshipFieldName": "file",
      "otherEntityName": "personFile",
      "relationshipType": "one-to-many",
      "otherEntityRelationshipName": "person"
    },
    {
      "relationshipId": 9,
      "relationshipName": "bibliographyTranslation",
      "relationshipFieldName": "bibliographyTranslation",
      "otherEntityName": "personBibliographyTranslations",
      "relationshipType": "one-to-many",
      "otherEntityRelationshipName": "person"
    },
    {
      "relationshipId": 10,
      "relationshipName": "keywordsTranslation",
      "relationshipFieldName": "keywordsTranslation",
      "otherEntityName": "personKeywordsTranslations",
      "relationshipType": "one-to-many",
      "otherEntityRelationshipName": "person"
    },
    {
      "relationshipId": 11,
      "relationshipName": "classification",
      "relationshipFieldName": "classification",
      "otherEntityName": "classification",
      "relationshipType": "many-to-many",
      "otherEntityField": "id",
      "ownerSide": true
    },
    {
      "relationshipId": 12,
      "relationshipName": "type",
      "relationshipFieldName": "type",
      "otherEntityName": "personType",
      "relationshipType": "many-to-one",
      "otherEntityField": "id"
    }
  ],
  "fields": [
    {
      "fieldId": 1,
      "fieldName": "firstName",
      "fieldType": "String"
    },
    {
      "fieldId": 2,
      "fieldName": "lastName",
      "fieldType": "String"
    },
    {
      "fieldId": 3,
      "fieldName": "middleName",
      "fieldType": "String"
    },
    {
      "fieldId": 4,
      "fieldName": "dateOfBirth",
      "fieldType": "LocalDate"
    },
    {
      "fieldId": 5,
      "fieldName": "placeOfBirth",
      "fieldType": "String"
    },
    {
      "fieldId": 6,
      "fieldName": "state",
      "fieldType": "String"
    },
    {
      "fieldId": 7,
      "fieldName": "address",
      "fieldType": "String"
    },
    {
      "fieldId": 8,
      "fieldName": "city",
      "fieldType": "String"
    },
    {
      "fieldId": 9,
      "fieldName": "bibliography",
      "fieldType": "String"
    },
    {
      "fieldId": 10,
      "fieldName": "keywords",
      "fieldType": "String"
    },
    {
      "fieldId": 11,
      "fieldName": "gender",
      "fieldType": "String"
    },
    {
      "fieldId": 12,
      "fieldName": "uri",
      "fieldType": "String"
    },
    {
      "fieldId": 13,
      "fieldName": "email",
      "fieldType": "String"
    },
    {
      "fieldId": 14,
      "fieldName": "orcid",
      "fieldType": "String"
    },
    {
      "fieldId": 15,
      "fieldName": "jmbg",
      "fieldType": "String"
    },
    {
      "fieldId": 16,
      "fieldName": "phones",
      "fieldType": "String"
    },
    {
      "fieldId": 17,
      "fieldName": "researchAreas",
      "fieldType": "String"
    },
    {
      "fieldId": 18,
      "fieldName": "mntrn",
      "fieldType": "String"
    },
    {
      "fieldId": 19,
      "fieldName": "note",
      "fieldType": "String"
    },
    {
      "fieldId": 20,
      "fieldName": "creator",
      "fieldType": "String"
    },
    {
      "fieldId": 21,
      "fieldName": "modifier",
      "fieldType": "String"
    },
    {
      "fieldId": 22,
      "fieldName": "creationDate",
      "fieldType": "DateTime"
    },
    {
      "fieldId": 23,
      "fieldName": "lastModificationDate",
      "fieldType": "DateTime"
    },
    {
      "fieldId": 24,
      "fieldName": "recordStatus",
      "fieldType": "Integer"
    },
    {
      "fieldId": 25,
      "fieldName": "alreadyRegistered",
      "fieldType": "Boolean"
    }
  ],
  "changelogDate": "20151125100512",
  "dto": "no",
  "pagination": "no",
  "javadoc": "",
  "fieldsContainLocalDate": true,
  "fieldsContainCustomTime": true,
  "fieldsContainDateTime": true
}