{
  "relationships": [
    {
      "relationshipId": 1,
      "relationshipName": "language",
      "relationshipFieldName": "language",
      "otherEntityName": "language",
      "relationshipType": "many-to-one",
      "otherEntityField": "id"
    },
    {
      "relationshipId": 2,
      "relationshipName": "personStatus",
      "relationshipFieldName": "personStatus",
      "otherEntityName": "personStatus",
      "relationshipType": "many-to-one",
      "otherEntityField": "id"
    }
  ],
  "fields": [
    {
      "fieldId": 1,
      "fieldName": "name",
      "fieldType": "String"
    },
    {
      "fieldId": 2,
      "fieldName": "transType",
      "fieldType": "String"
    }
  ],
  "changelogDate": "20151125100512",
  "dto": "no",
  "pagination": "no"
}