{
  "relationships": [
    {
      "relationshipId": 1,
      "relationshipName": "function",
      "relationshipFieldName": "function",
      "otherEntityName": "function",
      "relationshipType": "many-to-one",
      "otherEntityField": "id"
    },
    {
      "relationshipId": 2,
      "relationshipName": "institution",
      "relationshipFieldName": "institution",
      "otherEntityName": "institution",
      "relationshipType": "many-to-one",
      "otherEntityField": "id"
    },
    {
      "relationshipId": 3,
      "relationshipName": "position",
      "relationshipFieldName": "position",
      "otherEntityName": "position",
      "relationshipType": "many-to-one",
      "otherEntityField": "id"
    },
    {
      "relationshipId": 4,
      "relationshipName": "person",
      "relationshipFieldName": "person",
      "otherEntityName": "person",
      "relationshipType": "many-to-one",
      "otherEntityField": "id"
    }
  ],
  "fields": [
    {
      "fieldId": 1,
      "fieldName": "startDate",
      "fieldType": "DateTime"
    },
    {
      "fieldId": 2,
      "fieldName": "endDate",
      "fieldType": "DateTime"
    },
    {
      "fieldId": 3,
      "fieldName": "description",
      "fieldType": "String"
    },
    {
      "fieldId": 4,
      "fieldName": "researchArea",
      "fieldType": "String"
    }
  ],
  "changelogDate": "20151125100512",
  "dto": "no",
  "pagination": "no",
  "fieldsContainDateTime": true,
  "fieldsContainCustomTime": true
}