{
  "relationships": [
    {
      "relationshipId": 1,
      "relationshipName": "language",
      "relationshipFieldName": "language",
      "otherEntityName": "language",
      "relationshipType": "many-to-one",
      "otherEntityField": "id"
    },
    {
      "relationshipId": 2,
      "relationshipName": "personInstitution",
      "relationshipFieldName": "personInstitution",
      "otherEntityName": "personInstitution",
      "relationshipType": "one-to-many",
      "otherEntityRelationshipName": "position"
    },
    {
      "relationshipId": 3,
      "relationshipName": "nameTranslation",
      "relationshipFieldName": "nameTranslation",
      "otherEntityName": "positionNameTranslations",
      "relationshipType": "one-to-many",
      "otherEntityRelationshipName": "position"
    }
  ],
  "fields": [
    {
      "fieldId": 1,
      "fieldName": "name",
      "fieldType": "String"
    },
    {
      "fieldId": 2,
      "fieldName": "description",
      "fieldType": "String"
    }
  ],
  "changelogDate": "20151125100512",
  "dto": "no",
  "pagination": "no",
  "javadoc": ""
}