{
  "relationships": [
    {
      "relationshipId": 1,
      "relationshipName": "role",
      "relationshipFieldName": "role",
      "otherEntityName": "role",
      "relationshipType": "many-to-many",
      "ownerSide": false,
      "otherEntityRelationshipName": "privilage"
    }
  ],
  "fields": [
    {
      "fieldId": 1,
      "fieldName": "name",
      "fieldType": "String"
    },
    {
      "fieldId": 2,
      "fieldName": "description",
      "fieldType": "String"
    },
    {
      "fieldId": 3,
      "fieldName": "note",
      "fieldType": "String"
    },
    {
      "fieldId": 4,
      "fieldName": "entity",
      "fieldType": "String"
    },
    {
      "fieldId": 5,
      "fieldName": "action",
      "fieldType": "String"
    },
    {
      "fieldId": 6,
      "fieldName": "form",
      "fieldType": "String"
    }
  ],
  "changelogDate": "20151125100512",
  "dto": "no",
  "pagination": "no"
}